wrangling_pokemon
…
Filter the pokemon that are fire in type1 and water in type2 (HINT: You can add additional conditions in the filter function by adding an extra comma like filter(type1 == "fire", ...))

pokemon %>% filter(type2 == "fire")
pokemon %>% filter(attack > 150)
pokemon %>% filter(type1 %in% c("fire", "water"))
pokemon %>% filter(type1 == "fire", type2 == "water")

Select

Select is used to pick some variables in the data. Heres an example for the pokemon data. We will select just the variables name and attack.

pokemon %>% select(name, attack) 

## # A tibble: 801 x 2
##    name       attack
##    <chr>       <dbl>
##  1 Bulbasaur      49
##  2 Ivysaur        62
##  3 Venusaur      100
##  4 Charmander     52
##  5 Charmeleon     64
##  6 Charizard     104
##  7 Squirtle       48
##  8 Wartortle      63
##  9 Blastoise     103
## 10 Caterpie       30
## # ... with 791 more rows

Try it! Select the variables name, type1, attack and defense.

Arrange

arrange sorts the data by values in one of the columns. Heres an example which also involves selecting a subset of variables.

pokemon %>% 
  select(name, attack) %>%
  arrange(desc(attack))

## # A tibble: 801 x 2
##    name      attack
##    <chr>      <dbl>
##  1 Heracross    185
##  2 Kartana      181
##  3 Groudon      180
##  4 Rayquaza     180
##  5 Garchomp     170
##  6 Banette      165
##  7 Rampardos    165
##  8 Gallade      165
##  9 Tyranitar    164
## 10 Blaziken     160
## # ... with 791 more rows

Note that desc arranges in descending order.

Try it! Arrange carat by price, in increasing order.

pokemon %>% 
  select(name, attack, defense) %>%
  arrange(desc(attack))

## # A tibble: 801 x 3
##    name      attack defense
##    <chr>      <dbl>   <dbl>
##  1 Heracross    185     115
##  2 Kartana      181     131
##  3 Groudon      180     160
##  4 Rayquaza     180     100
##  5 Garchomp     170     115
##  6 Banette      165      75
##  7 Rampardos    165      60
##  8 Gallade      165      95
##  9 Tyranitar    164     150
## 10 Blaziken     160      80
## # ... with 791 more rows

Arrange is mostly used to get quick views of the numbers.

Mutate

I love the name mutate! It means to create new variables, or modify existing ones. For the pokemon dataset, we might be interested in examining the sum of both attack and sp_attack. Heres how we can create this variable:

pokemon %>% 
  mutate(total_attack = attack + sp_attack)

## # A tibble: 801 x 9
##    pokedex_number name       type1 type2  attack defense sp_attack sp_defense
##             <dbl> <chr>      <chr> <chr>   <dbl>   <dbl>     <dbl>      <dbl>
##  1              1 Bulbasaur  grass poison     49      49        65         65
##  2              2 Ivysaur    grass poison     62      63        80         80
##  3              3 Venusaur   grass poison    100     123       122        120
##  4              4 Charmander fire  <NA>       52      43        60         50
##  5              5 Charmeleon fire  <NA>       64      58        80         65
##  6              6 Charizard  fire  flying    104      78       159        115
##  7              7 Squirtle   water <NA>       48      65        50         64
##  8              8 Wartortle  water <NA>       63      80        65         80
##  9              9 Blastoise  water <NA>      103     120       135        115
## 10             10 Caterpie   bug   <NA>       30      35        20         20
## # ... with 791 more rows, and 1 more variable: total_attack <dbl>
…
Have you ever thought about why would anyone use any plots? If our data is the original complete information, then why dont we just interpret that information directly? Afterall, any plot that we make can only represent the data in limit ways because there are only limited number of visual elements we can throw onto a plot.

The key to answer this question is that, a plot should be a tool of communication of key information. Yes, a data may contain lots of information, but without summarising the data in clever ways, nothing can be interpreted because data are often huge.

Lets see an example of this. In the pokemon data, there are type1 and type2 variables. These variables indicate the type of a certain pokemon with some pokemons having only type1 but many pokemons has both. So what can we do to understand the total number of pokemons in each categories of type1 and type2?

We could certainly tabulate these counts. But we would end up with 166 categories, which is still too much for us to understand. We can see the average or maximum of these counts, but this can be very limiting. This is where data visualisation can help us to see important patterns.

poke_counts = pokemon %>% 
  group_by(type1, type2) %>% 
  tally()

poke_counts

## # A tibble: 166 x 3
## # Groups:   type1 [18]
##    type1 type2        n
##    <chr> <chr>    <int>
##  1 bug   electric     4
##  2 bug   fairy        2
##  3 bug   fighting     3
##  4 bug   fire         2
##  5 bug   flying      13
##  6 bug   ghost        1
##  7 bug   grass        6
##  8 bug   ground       1
##  9 bug   poison      11
## 10 bug   rock         3
## # ... with 156 more rows
…
